%YAML 1.1
%TAG !u! tag:unity3d.com,2011:
--- !u!74 &7400000
AnimationClip:
  m_ObjectHideFlags: 0
  m_PrefabParentObject: {fileID: 0}
  m_PrefabInternal: {fileID: 0}
  m_Name: rolling_down_reflection
  serializedVersion: 6
  m_Legacy: 0
  m_Compressed: 0
  m_UseHighQualityCurve: 1
  m_RotationCurves: []
  m_CompressedRotationCurves: []
  m_EulerCurves: []
  m_PositionCurves: []
  m_ScaleCurves: []
  m_FloatCurves:
  - curve:
      serializedVersion: 2
      m_Curve:
      - serializedVersion: 2
        time: 0
        value: 1
        inSlope: Infinity
        outSlope: Infinity
        tangentMode: 103
      m_PreInfinity: 2
      m_PostInfinity: 2
      m_RotationOrder: 4
    attribute: m_FlipX
    path: 
    classID: 212
    script: {fileID: 0}
  m_PPtrCurves:
  - curve:
    - time: 0
      value: {fileID: 21300042, guid: 697d221d9ebb2f141811e2dd3530034a, type: 3}
    - time: 0.1
      value: {fileID: 21300044, guid: 697d221d9ebb2f141811e2dd3530034a, type: 3}
    - time: 0.16666667
      value: {fileID: 21300046, guid: 697d221d9ebb2f141811e2dd3530034a, type: 3}
    - time: 0.23333333
      value: {fileID: 21300048, guid: 697d221d9ebb2f141811e2dd3530034a, type: 3}
    - time: 0.3
      value: {fileID: 21300050, guid: 697d221d9ebb2f141811e2dd3530034a, type: 3}
    - time: 0.36666667
      value: {fileID: 21300052, guid: 697d221d9ebb2f141811e2dd3530034a, type: 3}
    - time: 0.45
      value: {fileID: 21300054, guid: 697d221d9ebb2f141811e2dd3530034a, type: 3}
    - time: 0.53333336
      value: {fileID: 21300056, guid: 697d221d9ebb2f141811e2dd3530034a, type: 3}
    - time: 0.6166667
      value: {fileID: 21300058, guid: 697d221d9ebb2f141811e2dd3530034a, type: 3}
    - time: 0.73333335
      value: {fileID: 21300058, guid: 697d221d9ebb2f141811e2dd3530034a, type: 3}
    attribute: m_Sprite
    path: 
    classID: 212
    script: {fileID: 0}
  m_SampleRate: 60
  m_WrapMode: 0
  m_Bounds:
    m_Center: {x: 0, y: 0, z: 0}
    m_Extent: {x: 0, y: 0, z: 0}
  m_ClipBindingConstant:
    genericBindings:
    - serializedVersion: 2
      path: 0
      attribute: 555744692
      script: {fileID: 0}
      typeID: 212
      customType: 0
      isPPtrCurve: 0
    - serializedVersion: 2
      path: 0
      attribute: 0
      script: {fileID: 0}
      typeID: 212
      customType: 23
      isPPtrCurve: 1
    pptrCurveMapping:
    - {fileID: 21300042, guid: 697d221d9ebb2f141811e2dd3530034a, type: 3}
    - {fileID: 21300044, guid: 697d221d9ebb2f141811e2dd3530034a, type: 3}
    - {fileID: 21300046, guid: 697d221d9ebb2f141811e2dd3530034a, type: 3}
    - {fileID: 21300048, guid: 697d221d9ebb2f141811e2dd3530034a, type: 3}
    - {fileID: 21300050, guid: 697d221d9ebb2f141811e2dd3530034a, type: 3}
    - {fileID: 21300052, guid: 697d221d9ebb2f141811e2dd3530034a, type: 3}
    - {fileID: 21300054, guid: 697d221d9ebb2f141811e2dd3530034a, type: 3}
    - {fileID: 21300056, guid: 697d221d9ebb2f141811e2dd3530034a, type: 3}
    - {fileID: 21300058, guid: 697d221d9ebb2f141811e2dd3530034a, type: 3}
    - {fileID: 21300058, guid: 697d221d9ebb2f141811e2dd3530034a, type: 3}
  m_AnimationClipSettings:
    serializedVersion: 2
    m_AdditiveReferencePoseClip: {fileID: 0}
    m_AdditiveReferencePoseTime: 0
    m_StartTime: 0
    m_StopTime: 0.75
    m_OrientationOffsetY: 0
    m_Level: 0
    m_CycleOffset: 0
    m_HasAdditiveReferencePose: 0
    m_LoopTime: 0
    m_LoopBlend: 0
    m_LoopBlendOrientation: 0
    m_LoopBlendPositionY: 0
    m_LoopBlendPositionXZ: 0
    m_KeepOriginalOrientation: 0
    m_KeepOriginalPositionY: 1
    m_KeepOriginalPositionXZ: 0
    m_HeightFromFeet: 0
    m_Mirror: 0
  m_EditorCurves:
  - curve:
      serializedVersion: 2
      m_Curve:
      - serializedVersion: 2
        time: 0
        value: 1
        inSlope: Infinity
        outSlope: Infinity
        tangentMode: 103
      m_PreInfinity: 2
      m_PostInfinity: 2
      m_RotationOrder: 4
    attribute: m_FlipX
    path: 
    classID: 212
    script: {fileID: 0}
  m_EulerEditorCurves: []
  m_HasGenericRootTransform: 0
  m_HasMotionFloatCurves: 0
  m_GenerateMotionCurves: 0
  m_Events: []
