%YAML 1.1
%TAG !u! tag:unity3d.com,2011:
--- !u!74 &7400000
AnimationClip:
  m_ObjectHideFlags: 0
  m_PrefabParentObject: {fileID: 0}
  m_PrefabInternal: {fileID: 0}
  m_Name: Silas_Overworld_CutePose
  serializedVersion: 6
  m_Legacy: 0
  m_Compressed: 0
  m_UseHighQualityCurve: 1
  m_RotationCurves: []
  m_CompressedRotationCurves: []
  m_EulerCurves: []
  m_PositionCurves: []
  m_ScaleCurves: []
  m_FloatCurves: []
  m_PPtrCurves:
  - curve:
    - time: 0
      value: {fileID: 21300000, guid: be1f9bbbec9d94d41bf12a22e965969d, type: 3}
    - time: 0.016666668
      value: {fileID: 21300000, guid: be1f9bbbec9d94d41bf12a22e965969d, type: 3}
    - time: 0.033333335
      value: {fileID: 21300000, guid: be1f9bbbec9d94d41bf12a22e965969d, type: 3}
    - time: 0.05
      value: {fileID: 21300000, guid: be1f9bbbec9d94d41bf12a22e965969d, type: 3}
    - time: 0.06666667
      value: {fileID: 21300000, guid: 33380bd4f016b044cae8df709f125d8b, type: 3}
    - time: 0.083333336
      value: {fileID: 21300000, guid: 8672aa04cfa3a3a4395b7caaf2ba2146, type: 3}
    - time: 0.1
      value: {fileID: 21300000, guid: 93c56e148c40af740bb96054931f4b7f, type: 3}
    - time: 0.11666667
      value: {fileID: 21300000, guid: 4edf3aea986f2b342a5b53e9533ba267, type: 3}
    - time: 0.13333334
      value: {fileID: 21300000, guid: 6f3f934d9adef88479c125a5b8598c1e, type: 3}
    - time: 0.15
      value: {fileID: 21300000, guid: 4edf3aea986f2b342a5b53e9533ba267, type: 3}
    - time: 0.16666667
      value: {fileID: 21300000, guid: 4edf3aea986f2b342a5b53e9533ba267, type: 3}
    - time: 0.18333334
      value: {fileID: 21300000, guid: 4edf3aea986f2b342a5b53e9533ba267, type: 3}
    - time: 0.2
      value: {fileID: 21300000, guid: 4edf3aea986f2b342a5b53e9533ba267, type: 3}
    - time: 0.21666667
      value: {fileID: 21300000, guid: 6f3f934d9adef88479c125a5b8598c1e, type: 3}
    - time: 0.23333333
      value: {fileID: 21300000, guid: 6f3f934d9adef88479c125a5b8598c1e, type: 3}
    - time: 0.25
      value: {fileID: 21300000, guid: 6f3f934d9adef88479c125a5b8598c1e, type: 3}
    - time: 0.26666668
      value: {fileID: 21300000, guid: 6f3f934d9adef88479c125a5b8598c1e, type: 3}
    - time: 0.28333333
      value: {fileID: 21300000, guid: 4edf3aea986f2b342a5b53e9533ba267, type: 3}
    - time: 0.3
      value: {fileID: 21300000, guid: 4edf3aea986f2b342a5b53e9533ba267, type: 3}
    - time: 0.31666666
      value: {fileID: 21300000, guid: 4edf3aea986f2b342a5b53e9533ba267, type: 3}
    - time: 0.33333334
      value: {fileID: 21300000, guid: 4edf3aea986f2b342a5b53e9533ba267, type: 3}
    - time: 0.35
      value: {fileID: 21300000, guid: 6f3f934d9adef88479c125a5b8598c1e, type: 3}
    - time: 0.36666667
      value: {fileID: 21300000, guid: 6f3f934d9adef88479c125a5b8598c1e, type: 3}
    - time: 0.38333333
      value: {fileID: 21300000, guid: 6f3f934d9adef88479c125a5b8598c1e, type: 3}
    - time: 0.4
      value: {fileID: 21300000, guid: 6f3f934d9adef88479c125a5b8598c1e, type: 3}
    - time: 0.41666666
      value: {fileID: 21300000, guid: 4edf3aea986f2b342a5b53e9533ba267, type: 3}
    - time: 0.43333334
      value: {fileID: 21300000, guid: 4edf3aea986f2b342a5b53e9533ba267, type: 3}
    - time: 0.45
      value: {fileID: 21300000, guid: 4edf3aea986f2b342a5b53e9533ba267, type: 3}
    - time: 0.46666667
      value: {fileID: 21300000, guid: 4edf3aea986f2b342a5b53e9533ba267, type: 3}
    - time: 0.48333332
      value: {fileID: 21300000, guid: 6f3f934d9adef88479c125a5b8598c1e, type: 3}
    - time: 0.5
      value: {fileID: 21300000, guid: 6f3f934d9adef88479c125a5b8598c1e, type: 3}
    - time: 0.51666665
      value: {fileID: 21300000, guid: 6f3f934d9adef88479c125a5b8598c1e, type: 3}
    - time: 0.53333336
      value: {fileID: 21300000, guid: 6f3f934d9adef88479c125a5b8598c1e, type: 3}
    - time: 0.55
      value: {fileID: 21300000, guid: 4edf3aea986f2b342a5b53e9533ba267, type: 3}
    - time: 0.56666666
      value: {fileID: 21300000, guid: 4edf3aea986f2b342a5b53e9533ba267, type: 3}
    - time: 0.5833333
      value: {fileID: 21300000, guid: aad8c417a1de0034fa8b6c9a66aa2bef, type: 3}
    - time: 0.6
      value: {fileID: 21300000, guid: 33380bd4f016b044cae8df709f125d8b, type: 3}
    - time: 0.6166667
      value: {fileID: 21300000, guid: be1f9bbbec9d94d41bf12a22e965969d, type: 3}
    - time: 0.6333333
      value: {fileID: 21300000, guid: be1f9bbbec9d94d41bf12a22e965969d, type: 3}
    attribute: m_Sprite
    path: 
    classID: 212
    script: {fileID: 0}
  m_SampleRate: 60
  m_WrapMode: 0
  m_Bounds:
    m_Center: {x: 0, y: 0, z: 0}
    m_Extent: {x: 0, y: 0, z: 0}
  m_ClipBindingConstant:
    genericBindings:
    - serializedVersion: 2
      path: 0
      attribute: 0
      script: {fileID: 0}
      typeID: 212
      customType: 23
      isPPtrCurve: 1
    pptrCurveMapping:
    - {fileID: 21300000, guid: be1f9bbbec9d94d41bf12a22e965969d, type: 3}
    - {fileID: 21300000, guid: be1f9bbbec9d94d41bf12a22e965969d, type: 3}
    - {fileID: 21300000, guid: be1f9bbbec9d94d41bf12a22e965969d, type: 3}
    - {fileID: 21300000, guid: be1f9bbbec9d94d41bf12a22e965969d, type: 3}
    - {fileID: 21300000, guid: 33380bd4f016b044cae8df709f125d8b, type: 3}
    - {fileID: 21300000, guid: 8672aa04cfa3a3a4395b7caaf2ba2146, type: 3}
    - {fileID: 21300000, guid: 93c56e148c40af740bb96054931f4b7f, type: 3}
    - {fileID: 21300000, guid: 4edf3aea986f2b342a5b53e9533ba267, type: 3}
    - {fileID: 21300000, guid: 6f3f934d9adef88479c125a5b8598c1e, type: 3}
    - {fileID: 21300000, guid: 4edf3aea986f2b342a5b53e9533ba267, type: 3}
    - {fileID: 21300000, guid: 4edf3aea986f2b342a5b53e9533ba267, type: 3}
    - {fileID: 21300000, guid: 4edf3aea986f2b342a5b53e9533ba267, type: 3}
    - {fileID: 21300000, guid: 4edf3aea986f2b342a5b53e9533ba267, type: 3}
    - {fileID: 21300000, guid: 6f3f934d9adef88479c125a5b8598c1e, type: 3}
    - {fileID: 21300000, guid: 6f3f934d9adef88479c125a5b8598c1e, type: 3}
    - {fileID: 21300000, guid: 6f3f934d9adef88479c125a5b8598c1e, type: 3}
    - {fileID: 21300000, guid: 6f3f934d9adef88479c125a5b8598c1e, type: 3}
    - {fileID: 21300000, guid: 4edf3aea986f2b342a5b53e9533ba267, type: 3}
    - {fileID: 21300000, guid: 4edf3aea986f2b342a5b53e9533ba267, type: 3}
    - {fileID: 21300000, guid: 4edf3aea986f2b342a5b53e9533ba267, type: 3}
    - {fileID: 21300000, guid: 4edf3aea986f2b342a5b53e9533ba267, type: 3}
    - {fileID: 21300000, guid: 6f3f934d9adef88479c125a5b8598c1e, type: 3}
    - {fileID: 21300000, guid: 6f3f934d9adef88479c125a5b8598c1e, type: 3}
    - {fileID: 21300000, guid: 6f3f934d9adef88479c125a5b8598c1e, type: 3}
    - {fileID: 21300000, guid: 6f3f934d9adef88479c125a5b8598c1e, type: 3}
    - {fileID: 21300000, guid: 4edf3aea986f2b342a5b53e9533ba267, type: 3}
    - {fileID: 21300000, guid: 4edf3aea986f2b342a5b53e9533ba267, type: 3}
    - {fileID: 21300000, guid: 4edf3aea986f2b342a5b53e9533ba267, type: 3}
    - {fileID: 21300000, guid: 4edf3aea986f2b342a5b53e9533ba267, type: 3}
    - {fileID: 21300000, guid: 6f3f934d9adef88479c125a5b8598c1e, type: 3}
    - {fileID: 21300000, guid: 6f3f934d9adef88479c125a5b8598c1e, type: 3}
    - {fileID: 21300000, guid: 6f3f934d9adef88479c125a5b8598c1e, type: 3}
    - {fileID: 21300000, guid: 6f3f934d9adef88479c125a5b8598c1e, type: 3}
    - {fileID: 21300000, guid: 4edf3aea986f2b342a5b53e9533ba267, type: 3}
    - {fileID: 21300000, guid: 4edf3aea986f2b342a5b53e9533ba267, type: 3}
    - {fileID: 21300000, guid: aad8c417a1de0034fa8b6c9a66aa2bef, type: 3}
    - {fileID: 21300000, guid: 33380bd4f016b044cae8df709f125d8b, type: 3}
    - {fileID: 21300000, guid: be1f9bbbec9d94d41bf12a22e965969d, type: 3}
    - {fileID: 21300000, guid: be1f9bbbec9d94d41bf12a22e965969d, type: 3}
  m_AnimationClipSettings:
    serializedVersion: 2
    m_AdditiveReferencePoseClip: {fileID: 0}
    m_AdditiveReferencePoseTime: 0
    m_StartTime: 0
    m_StopTime: 0.65
    m_OrientationOffsetY: 0
    m_Level: 0
    m_CycleOffset: 0
    m_HasAdditiveReferencePose: 0
    m_LoopTime: 0
    m_LoopBlend: 0
    m_LoopBlendOrientation: 0
    m_LoopBlendPositionY: 0
    m_LoopBlendPositionXZ: 0
    m_KeepOriginalOrientation: 0
    m_KeepOriginalPositionY: 1
    m_KeepOriginalPositionXZ: 0
    m_HeightFromFeet: 0
    m_Mirror: 0
  m_EditorCurves: []
  m_EulerEditorCurves: []
  m_HasGenericRootTransform: 0
  m_HasMotionFloatCurves: 0
  m_GenerateMotionCurves: 0
  m_Events: []
