%YAML 1.1
%TAG !u! tag:unity3d.com,2011:
--- !u!74 &7400000
AnimationClip:
  m_ObjectHideFlags: 0
  m_PrefabParentObject: {fileID: 0}
  m_PrefabInternal: {fileID: 0}
  m_Name: Silas_Overworld_HeadScratch
  serializedVersion: 6
  m_Legacy: 0
  m_Compressed: 0
  m_UseHighQualityCurve: 1
  m_RotationCurves: []
  m_CompressedRotationCurves: []
  m_EulerCurves: []
  m_PositionCurves: []
  m_ScaleCurves: []
  m_FloatCurves: []
  m_PPtrCurves:
  - curve:
    - time: 0
      value: {fileID: 21300000, guid: abf43bcd41771184c90060c3f6dfab4e, type: 3}
    - time: 0.016666668
      value: {fileID: 21300000, guid: abf43bcd41771184c90060c3f6dfab4e, type: 3}
    - time: 0.033333335
      value: {fileID: 21300000, guid: abf43bcd41771184c90060c3f6dfab4e, type: 3}
    - time: 0.05
      value: {fileID: 21300000, guid: abf43bcd41771184c90060c3f6dfab4e, type: 3}
    - time: 0.06666667
      value: {fileID: 21300000, guid: f9cf6304ea0dd1e448528e097af70a1d, type: 3}
    - time: 0.083333336
      value: {fileID: 21300000, guid: 69c3af5e813c94c42acf945fbb32af68, type: 3}
    - time: 0.1
      value: {fileID: 21300000, guid: b94103dcaefdb764c97f7ec458af3e3e, type: 3}
    - time: 0.11666667
      value: {fileID: 21300000, guid: 9e8fa826b5b29cc4a9ccfe7ff1d78cbd, type: 3}
    - time: 0.13333334
      value: {fileID: 21300000, guid: 829bc3dcfa6a2f1458082647f8d43b6b, type: 3}
    - time: 0.15
      value: {fileID: 21300000, guid: a3afb1ac423fce34183c1de8e3e6db4e, type: 3}
    - time: 0.16666667
      value: {fileID: 21300000, guid: a3afb1ac423fce34183c1de8e3e6db4e, type: 3}
    - time: 0.18333334
      value: {fileID: 21300000, guid: e568d2581b21659499b693b45cba269e, type: 3}
    - time: 0.2
      value: {fileID: 21300000, guid: e568d2581b21659499b693b45cba269e, type: 3}
    - time: 0.21666667
      value: {fileID: 21300000, guid: e568d2581b21659499b693b45cba269e, type: 3}
    - time: 0.23333333
      value: {fileID: 21300000, guid: a3afb1ac423fce34183c1de8e3e6db4e, type: 3}
    - time: 0.25
      value: {fileID: 21300000, guid: a3afb1ac423fce34183c1de8e3e6db4e, type: 3}
    - time: 0.26666668
      value: {fileID: 21300000, guid: a3afb1ac423fce34183c1de8e3e6db4e, type: 3}
    - time: 0.28333333
      value: {fileID: 21300000, guid: e568d2581b21659499b693b45cba269e, type: 3}
    - time: 0.3
      value: {fileID: 21300000, guid: e568d2581b21659499b693b45cba269e, type: 3}
    - time: 0.31666666
      value: {fileID: 21300000, guid: e568d2581b21659499b693b45cba269e, type: 3}
    - time: 0.33333334
      value: {fileID: 21300000, guid: e568d2581b21659499b693b45cba269e, type: 3}
    - time: 0.35
      value: {fileID: 21300000, guid: a71d77bcd5acabe428e9161e5da333c2, type: 3}
    - time: 0.36666667
      value: {fileID: 21300000, guid: a71d77bcd5acabe428e9161e5da333c2, type: 3}
    - time: 0.38333333
      value: {fileID: 21300000, guid: a71d77bcd5acabe428e9161e5da333c2, type: 3}
    - time: 0.4
      value: {fileID: 21300000, guid: a71d77bcd5acabe428e9161e5da333c2, type: 3}
    - time: 0.41666666
      value: {fileID: 21300000, guid: 6af34968ca290a446849ea3d3f08af72, type: 3}
    - time: 0.43333334
      value: {fileID: 21300000, guid: 6af34968ca290a446849ea3d3f08af72, type: 3}
    - time: 0.45
      value: {fileID: 21300000, guid: 6af34968ca290a446849ea3d3f08af72, type: 3}
    - time: 0.46666667
      value: {fileID: 21300000, guid: a3afb1ac423fce34183c1de8e3e6db4e, type: 3}
    - time: 0.48333332
      value: {fileID: 21300000, guid: a3afb1ac423fce34183c1de8e3e6db4e, type: 3}
    - time: 0.5
      value: {fileID: 21300000, guid: a3afb1ac423fce34183c1de8e3e6db4e, type: 3}
    - time: 0.51666665
      value: {fileID: 21300000, guid: e568d2581b21659499b693b45cba269e, type: 3}
    - time: 0.53333336
      value: {fileID: 21300000, guid: e568d2581b21659499b693b45cba269e, type: 3}
    - time: 0.55
      value: {fileID: 21300000, guid: e568d2581b21659499b693b45cba269e, type: 3}
    - time: 0.56666666
      value: {fileID: 21300000, guid: a4b3eceb96ec23b4bbe154e0766773a2, type: 3}
    - time: 0.5833333
      value: {fileID: 21300000, guid: 3333689d39fce1542ad6f11ecfa88361, type: 3}
    - time: 0.6
      value: {fileID: 21300000, guid: cf33dc6d27538f444b758c640f2188e4, type: 3}
    - time: 0.6166667
      value: {fileID: 21300000, guid: b69bc418df94c35468aa61074a7d2f13, type: 3}
    - time: 0.6333333
      value: {fileID: 21300000, guid: abf43bcd41771184c90060c3f6dfab4e, type: 3}
    - time: 0.65
      value: {fileID: 21300000, guid: abf43bcd41771184c90060c3f6dfab4e, type: 3}
    - time: 0.6666667
      value: {fileID: 21300000, guid: abf43bcd41771184c90060c3f6dfab4e, type: 3}
    - time: 0.68333334
      value: {fileID: 21300000, guid: abf43bcd41771184c90060c3f6dfab4e, type: 3}
    - time: 0.7
      value: {fileID: 21300000, guid: abf43bcd41771184c90060c3f6dfab4e, type: 3}
    - time: 0.71666664
      value: {fileID: 21300000, guid: abf43bcd41771184c90060c3f6dfab4e, type: 3}
    - time: 0.73333335
      value: {fileID: 21300000, guid: abf43bcd41771184c90060c3f6dfab4e, type: 3}
    attribute: m_Sprite
    path: 
    classID: 212
    script: {fileID: 0}
  m_SampleRate: 60
  m_WrapMode: 0
  m_Bounds:
    m_Center: {x: 0, y: 0, z: 0}
    m_Extent: {x: 0, y: 0, z: 0}
  m_ClipBindingConstant:
    genericBindings:
    - serializedVersion: 2
      path: 0
      attribute: 0
      script: {fileID: 0}
      typeID: 212
      customType: 23
      isPPtrCurve: 1
    pptrCurveMapping:
    - {fileID: 21300000, guid: abf43bcd41771184c90060c3f6dfab4e, type: 3}
    - {fileID: 21300000, guid: abf43bcd41771184c90060c3f6dfab4e, type: 3}
    - {fileID: 21300000, guid: abf43bcd41771184c90060c3f6dfab4e, type: 3}
    - {fileID: 21300000, guid: abf43bcd41771184c90060c3f6dfab4e, type: 3}
    - {fileID: 21300000, guid: f9cf6304ea0dd1e448528e097af70a1d, type: 3}
    - {fileID: 21300000, guid: 69c3af5e813c94c42acf945fbb32af68, type: 3}
    - {fileID: 21300000, guid: b94103dcaefdb764c97f7ec458af3e3e, type: 3}
    - {fileID: 21300000, guid: 9e8fa826b5b29cc4a9ccfe7ff1d78cbd, type: 3}
    - {fileID: 21300000, guid: 829bc3dcfa6a2f1458082647f8d43b6b, type: 3}
    - {fileID: 21300000, guid: a3afb1ac423fce34183c1de8e3e6db4e, type: 3}
    - {fileID: 21300000, guid: a3afb1ac423fce34183c1de8e3e6db4e, type: 3}
    - {fileID: 21300000, guid: e568d2581b21659499b693b45cba269e, type: 3}
    - {fileID: 21300000, guid: e568d2581b21659499b693b45cba269e, type: 3}
    - {fileID: 21300000, guid: e568d2581b21659499b693b45cba269e, type: 3}
    - {fileID: 21300000, guid: a3afb1ac423fce34183c1de8e3e6db4e, type: 3}
    - {fileID: 21300000, guid: a3afb1ac423fce34183c1de8e3e6db4e, type: 3}
    - {fileID: 21300000, guid: a3afb1ac423fce34183c1de8e3e6db4e, type: 3}
    - {fileID: 21300000, guid: e568d2581b21659499b693b45cba269e, type: 3}
    - {fileID: 21300000, guid: e568d2581b21659499b693b45cba269e, type: 3}
    - {fileID: 21300000, guid: e568d2581b21659499b693b45cba269e, type: 3}
    - {fileID: 21300000, guid: e568d2581b21659499b693b45cba269e, type: 3}
    - {fileID: 21300000, guid: a71d77bcd5acabe428e9161e5da333c2, type: 3}
    - {fileID: 21300000, guid: a71d77bcd5acabe428e9161e5da333c2, type: 3}
    - {fileID: 21300000, guid: a71d77bcd5acabe428e9161e5da333c2, type: 3}
    - {fileID: 21300000, guid: a71d77bcd5acabe428e9161e5da333c2, type: 3}
    - {fileID: 21300000, guid: 6af34968ca290a446849ea3d3f08af72, type: 3}
    - {fileID: 21300000, guid: 6af34968ca290a446849ea3d3f08af72, type: 3}
    - {fileID: 21300000, guid: 6af34968ca290a446849ea3d3f08af72, type: 3}
    - {fileID: 21300000, guid: a3afb1ac423fce34183c1de8e3e6db4e, type: 3}
    - {fileID: 21300000, guid: a3afb1ac423fce34183c1de8e3e6db4e, type: 3}
    - {fileID: 21300000, guid: a3afb1ac423fce34183c1de8e3e6db4e, type: 3}
    - {fileID: 21300000, guid: e568d2581b21659499b693b45cba269e, type: 3}
    - {fileID: 21300000, guid: e568d2581b21659499b693b45cba269e, type: 3}
    - {fileID: 21300000, guid: e568d2581b21659499b693b45cba269e, type: 3}
    - {fileID: 21300000, guid: a4b3eceb96ec23b4bbe154e0766773a2, type: 3}
    - {fileID: 21300000, guid: 3333689d39fce1542ad6f11ecfa88361, type: 3}
    - {fileID: 21300000, guid: cf33dc6d27538f444b758c640f2188e4, type: 3}
    - {fileID: 21300000, guid: b69bc418df94c35468aa61074a7d2f13, type: 3}
    - {fileID: 21300000, guid: abf43bcd41771184c90060c3f6dfab4e, type: 3}
    - {fileID: 21300000, guid: abf43bcd41771184c90060c3f6dfab4e, type: 3}
    - {fileID: 21300000, guid: abf43bcd41771184c90060c3f6dfab4e, type: 3}
    - {fileID: 21300000, guid: abf43bcd41771184c90060c3f6dfab4e, type: 3}
    - {fileID: 21300000, guid: abf43bcd41771184c90060c3f6dfab4e, type: 3}
    - {fileID: 21300000, guid: abf43bcd41771184c90060c3f6dfab4e, type: 3}
    - {fileID: 21300000, guid: abf43bcd41771184c90060c3f6dfab4e, type: 3}
  m_AnimationClipSettings:
    serializedVersion: 2
    m_AdditiveReferencePoseClip: {fileID: 0}
    m_AdditiveReferencePoseTime: 0
    m_StartTime: 0
    m_StopTime: 0.75
    m_OrientationOffsetY: 0
    m_Level: 0
    m_CycleOffset: 0
    m_HasAdditiveReferencePose: 0
    m_LoopTime: 0
    m_LoopBlend: 0
    m_LoopBlendOrientation: 0
    m_LoopBlendPositionY: 0
    m_LoopBlendPositionXZ: 0
    m_KeepOriginalOrientation: 0
    m_KeepOriginalPositionY: 1
    m_KeepOriginalPositionXZ: 0
    m_HeightFromFeet: 0
    m_Mirror: 0
  m_EditorCurves: []
  m_EulerEditorCurves: []
  m_HasGenericRootTransform: 0
  m_HasMotionFloatCurves: 0
  m_GenerateMotionCurves: 0
  m_Events: []
